<svg width="327" height="24" viewBox="0 0 327 24" fill="none" xmlns="http://www.w3.org/2000/svg">
<path d="M41.956 1.92496C42.2458 1.92496 42.5459 2.00776 42.8564 2.17335C43.1876 2.31824 43.436 2.51487 43.6015 2.76325L51.1462 14.3751L49.5938 14.313L57.3247 2.76325C57.7179 2.20439 58.2251 1.92496 58.846 1.92496C59.3428 1.92496 59.7878 2.1009 60.1811 2.45278C60.5743 2.80465 60.771 3.26002 60.771 3.81888V21.7956C60.771 22.3337 60.595 22.7891 60.2432 23.1617C59.8913 23.5135 59.4256 23.6895 58.846 23.6895C58.2665 23.6895 57.7904 23.5135 57.4178 23.1617C57.0659 22.7891 56.89 22.3337 56.89 21.7956V7.17204L58.1009 7.45147L51.7671 17.1073C51.5808 17.335 51.3428 17.5317 51.053 17.6972C50.7839 17.8628 50.5045 17.9353 50.2147 17.9146C49.9456 17.9353 49.6662 17.8628 49.3764 17.6972C49.1074 17.5317 48.8797 17.335 48.6934 17.1073L42.7633 7.7309L43.5705 6.08537V21.7956C43.5705 22.3337 43.4049 22.7891 43.0737 23.1617C42.7426 23.5135 42.3079 23.6895 41.7697 23.6895C41.2523 23.6895 40.8279 23.5135 40.4968 23.1617C40.1656 22.7891 40 22.3337 40 21.7956V3.81888C40 3.30142 40.1863 2.8564 40.5589 2.48382C40.9521 2.11125 41.4178 1.92496 41.956 1.92496Z" fill="#01192F"/>
<path d="M78.727 6.76842C79.2652 6.76842 79.7102 6.94436 80.0621 7.29623C80.414 7.64811 80.5899 8.10348 80.5899 8.66234V21.7956C80.5899 22.3337 80.414 22.7891 80.0621 23.1617C79.7102 23.5135 79.2652 23.6895 78.727 23.6895C78.1889 23.6895 77.7439 23.5135 77.392 23.1617C77.0401 22.7891 76.8642 22.3337 76.8642 21.7956V20.2742L77.5472 20.5536C77.5472 20.8227 77.4023 21.1539 77.1126 21.5472C76.8228 21.9197 76.4295 22.2923 75.9327 22.6649C75.436 23.0375 74.8461 23.3583 74.163 23.6274C73.5007 23.8758 72.7762 24 71.9897 24C70.5615 24 69.2678 23.6377 68.1087 22.9133C66.9496 22.1681 66.0285 21.1539 65.3454 19.8706C64.6831 18.5666 64.3519 17.0763 64.3519 15.3997C64.3519 13.7024 64.6831 12.2121 65.3454 10.9288C66.0285 9.62482 66.9392 8.61059 68.0776 7.88614C69.2161 7.141 70.4787 6.76842 71.8655 6.76842C72.7555 6.76842 73.5731 6.90296 74.3183 7.17204C75.0634 7.44112 75.7051 7.78265 76.2432 8.19662C76.8021 8.61059 77.2264 9.03491 77.5162 9.46958C77.8267 9.88355 77.9819 10.2354 77.9819 10.5252L76.8642 10.9288V8.66234C76.8642 8.12417 77.0401 7.67916 77.392 7.32728C77.7439 6.95471 78.1889 6.76842 78.727 6.76842ZM72.4554 20.5847C73.3661 20.5847 74.163 20.357 74.8461 19.9016C75.5291 19.4463 76.0569 18.8253 76.4295 18.0388C76.8228 17.2522 77.0194 16.3725 77.0194 15.3997C77.0194 14.4062 76.8228 13.5161 76.4295 12.7296C76.0569 11.9431 75.5291 11.3221 74.8461 10.8667C74.163 10.4114 73.3661 10.1837 72.4554 10.1837C71.5654 10.1837 70.7788 10.4114 70.0958 10.8667C69.4127 11.3221 68.8745 11.9431 68.4813 12.7296C68.1087 13.5161 67.9224 14.4062 67.9224 15.3997C67.9224 16.3725 68.1087 17.2522 68.4813 18.0388C68.8745 18.8253 69.4127 19.4463 70.0958 19.9016C70.7788 20.357 71.5654 20.5847 72.4554 20.5847Z" fill="#01192F"/>
<path d="M86.4868 23.6895C85.9487 23.6895 85.5036 23.5135 85.1518 23.1617C84.7999 22.7891 84.6239 22.3337 84.6239 21.7956V8.97281C84.6239 8.43465 84.7999 7.98963 85.1518 7.63776C85.5036 7.26519 85.9487 7.0789 86.4868 7.0789C87.025 7.0789 87.47 7.26519 87.8219 7.63776C88.1737 7.98963 88.3497 8.43465 88.3497 8.97281V11.8913L88.1323 9.81111C88.36 9.31434 88.6498 8.87967 89.0017 8.5071C89.3743 8.11383 89.7882 7.793 90.2436 7.54462C90.699 7.27553 91.1854 7.0789 91.7028 6.95471C92.2203 6.83052 92.7378 6.76842 93.2552 6.76842C93.8762 6.76842 94.3937 6.94436 94.8076 7.29623C95.2423 7.64811 95.4596 8.06208 95.4596 8.53815C95.4596 9.2212 95.2837 9.71796 94.9318 10.0284C94.5799 10.3182 94.197 10.4631 93.783 10.4631C93.3898 10.4631 93.0276 10.3907 92.6964 10.2458C92.3859 10.1009 92.0237 10.0284 91.6097 10.0284C91.2371 10.0284 90.8542 10.1216 90.4609 10.3079C90.0884 10.4735 89.7365 10.7425 89.4053 11.1151C89.0948 11.4877 88.8361 11.9534 88.6291 12.5123C88.4428 13.0504 88.3497 13.6921 88.3497 14.4372V21.7956C88.3497 22.3337 88.1737 22.7891 87.8219 23.1617C87.47 23.5135 87.025 23.6895 86.4868 23.6895Z" fill="#01192F"/>
<path d="M104.778 6.76842C105.958 6.76842 106.982 6.89261 107.852 7.14099C108.742 7.38938 109.425 7.74125 109.901 8.19662C110.398 8.63129 110.646 9.1591 110.646 9.78006C110.646 10.194 110.522 10.5873 110.274 10.9599C110.025 11.3117 109.663 11.4877 109.187 11.4877C108.856 11.4877 108.576 11.4463 108.349 11.3635C108.142 11.26 107.955 11.1358 107.79 10.9909C107.624 10.846 107.428 10.7115 107.2 10.5873C106.993 10.4631 106.672 10.37 106.237 10.3079C105.823 10.2251 105.513 10.1837 105.306 10.1837C104.25 10.1837 103.35 10.4114 102.605 10.8667C101.88 11.3221 101.321 11.9431 100.928 12.7296C100.535 13.4954 100.338 14.3855 100.338 15.3997C100.338 16.3932 100.535 17.2833 100.928 18.0698C101.342 18.8357 101.901 19.4463 102.605 19.9016C103.329 20.357 104.157 20.5847 105.089 20.5847C105.606 20.5847 106.051 20.5536 106.424 20.4916C106.796 20.4295 107.107 20.3363 107.355 20.2121C107.645 20.0465 107.904 19.8706 108.131 19.6843C108.359 19.498 108.7 19.4049 109.156 19.4049C109.694 19.4049 110.108 19.5808 110.398 19.9327C110.688 20.2639 110.832 20.6778 110.832 21.1746C110.832 21.6921 110.543 22.1681 109.963 22.6028C109.384 23.0168 108.618 23.3583 107.666 23.6274C106.734 23.8758 105.72 24 104.623 24C102.988 24 101.57 23.6274 100.369 22.8822C99.1688 22.1164 98.2374 21.0815 97.575 19.7775C96.9333 18.4734 96.6125 17.0142 96.6125 15.3997C96.6125 13.7024 96.954 12.2121 97.6371 10.9288C98.3409 9.62482 99.3033 8.61059 100.525 7.88614C101.766 7.141 103.184 6.76842 104.778 6.76842Z" fill="#01192F"/>
<path d="M122.243 6.76842C123.734 6.76842 124.862 7.08925 125.628 7.7309C126.414 8.37256 126.952 9.23155 127.242 10.3079C127.532 11.3635 127.677 12.5433 127.677 13.8473V21.7956C127.677 22.3337 127.501 22.7891 127.149 23.1617C126.797 23.5135 126.352 23.6895 125.814 23.6895C125.276 23.6895 124.831 23.5135 124.479 23.1617C124.127 22.7891 123.951 22.3337 123.951 21.7956V13.8473C123.951 13.1643 123.868 12.5537 123.703 12.0155C123.537 11.4566 123.237 11.0116 122.802 10.6804C122.368 10.3493 121.747 10.1837 120.939 10.1837C120.153 10.1837 119.48 10.3493 118.921 10.6804C118.362 11.0116 117.938 11.4566 117.648 12.0155C117.379 12.5537 117.245 13.1643 117.245 13.8473V21.7956C117.245 22.3337 117.069 22.7891 116.717 23.1617C116.365 23.5135 115.92 23.6895 115.382 23.6895C114.844 23.6895 114.399 23.5135 114.047 23.1617C113.695 22.7891 113.519 22.3337 113.519 21.7956V2.60802C113.519 2.06985 113.695 1.62483 114.047 1.27296C114.399 0.900386 114.844 0.7141 115.382 0.7141C115.92 0.7141 116.365 0.900386 116.717 1.27296C117.069 1.62483 117.245 2.06985 117.245 2.60802V10.3079L116.779 10.2147C116.965 9.86285 117.224 9.49028 117.555 9.09701C117.886 8.68304 118.29 8.30011 118.766 7.94824C119.242 7.59636 119.77 7.31693 120.35 7.10995C120.929 6.88226 121.56 6.76842 122.243 6.76842Z" fill="#01192F"/>
<path d="M139.535 24C137.776 24 136.244 23.6377 134.94 22.9133C133.657 22.1681 132.663 21.1643 131.959 19.9016C131.276 18.639 130.935 17.2108 130.935 15.617C130.935 13.7542 131.307 12.1707 132.053 10.8667C132.818 9.54202 133.812 8.5278 135.033 7.82405C136.254 7.1203 137.548 6.76842 138.914 6.76842C139.97 6.76842 140.963 6.98576 141.895 7.42042C142.847 7.85509 143.685 8.45535 144.41 9.2212C145.134 9.96634 145.703 10.8357 146.117 11.8292C146.552 12.8227 146.769 13.8784 146.769 14.9961C146.749 15.4929 146.552 15.8965 146.179 16.207C145.807 16.5174 145.372 16.6727 144.875 16.6727H133.015L132.084 13.5679H143.478L142.795 14.1888V13.3506C142.754 12.7503 142.536 12.2121 142.143 11.7361C141.771 11.26 141.295 10.8874 140.715 10.6183C140.156 10.3286 139.556 10.1837 138.914 10.1837C138.293 10.1837 137.714 10.2665 137.176 10.4321C136.637 10.5976 136.172 10.8771 135.778 11.2704C135.385 11.6636 135.075 12.1914 134.847 12.8538C134.619 13.5161 134.505 14.3544 134.505 15.3687C134.505 16.4864 134.733 17.4385 135.188 18.2251C135.665 18.9909 136.265 19.5808 136.989 19.9948C137.734 20.3881 138.521 20.5847 139.349 20.5847C140.115 20.5847 140.725 20.5226 141.181 20.3984C141.636 20.2742 141.998 20.1293 142.267 19.9637C142.557 19.7775 142.816 19.6222 143.044 19.498C143.416 19.3117 143.768 19.2186 144.099 19.2186C144.555 19.2186 144.927 19.3738 145.217 19.6843C145.527 19.9948 145.683 20.357 145.683 20.771C145.683 21.3298 145.393 21.837 144.813 22.2923C144.275 22.7477 143.52 23.1513 142.547 23.5032C141.574 23.8344 140.57 24 139.535 24ZM138.945 6.02327C138.78 6.02327 138.562 5.94048 138.293 5.77489C138.045 5.5886 137.931 5.32987 137.952 4.99869C137.952 4.81241 138.014 4.61577 138.138 4.40879L139.939 1.24191C140.125 0.910735 140.363 0.620955 140.653 0.372573C140.943 0.124191 141.274 0 141.646 0C142.226 0 142.65 0.155239 142.919 0.465717C143.188 0.755496 143.313 1.11772 143.292 1.55239C143.271 1.75938 143.209 1.97671 143.106 2.20439C143.023 2.43208 142.888 2.65976 142.702 2.88745L140.342 5.49546C140.135 5.72314 139.908 5.86803 139.659 5.93013C139.411 5.99223 139.173 6.02327 138.945 6.02327Z" fill="#01192F"/>
<path d="M149.062 21.1125C148.855 20.8227 148.762 20.4502 148.783 19.9948C148.803 19.5394 149.072 19.1461 149.59 18.815C149.921 18.608 150.273 18.5252 150.645 18.5666C151.018 18.5873 151.38 18.7736 151.732 19.1254C152.332 19.7257 152.964 20.1914 153.626 20.5226C154.288 20.8538 155.116 21.0194 156.11 21.0194C156.42 20.9987 156.762 20.9573 157.134 20.8952C157.507 20.8124 157.828 20.6468 158.097 20.3984C158.387 20.1293 158.532 19.7257 158.532 19.1875C158.532 18.7322 158.376 18.3699 158.066 18.1009C157.755 17.8318 157.341 17.6041 156.824 17.4178C156.327 17.2315 155.768 17.0556 155.147 16.89C154.506 16.7037 153.843 16.4967 153.16 16.269C152.498 16.0414 151.887 15.7516 151.328 15.3997C150.77 15.0271 150.314 14.5407 149.962 13.9405C149.61 13.3402 149.435 12.5847 149.435 11.674C149.435 10.639 149.724 9.75936 150.304 9.03491C150.883 8.31046 151.629 7.7516 152.539 7.35833C153.471 6.96506 154.444 6.76842 155.458 6.76842C156.099 6.76842 156.772 6.85121 157.476 7.0168C158.18 7.16169 158.852 7.41008 159.494 7.76195C160.136 8.09313 160.674 8.53815 161.109 9.09701C161.336 9.40748 161.471 9.78006 161.512 10.2147C161.554 10.6494 161.357 11.0427 160.922 11.3945C160.612 11.6429 160.25 11.7568 159.836 11.7361C159.422 11.6947 159.08 11.5498 158.811 11.3014C158.459 10.846 157.983 10.4838 157.383 10.2147C156.803 9.94565 156.131 9.81111 155.365 9.81111C155.054 9.81111 154.713 9.8525 154.34 9.9353C153.988 9.99739 153.678 10.1526 153.409 10.401C153.14 10.6287 153.005 11.0013 153.005 11.5187C153.005 11.9948 153.16 12.3777 153.471 12.6675C153.781 12.9366 154.195 13.1643 154.713 13.3506C155.251 13.5161 155.82 13.6817 156.42 13.8473C157.041 14.0129 157.673 14.2095 158.314 14.4372C158.956 14.6649 159.546 14.965 160.084 15.3376C160.622 15.7102 161.057 16.1966 161.388 16.7969C161.719 17.3764 161.885 18.1216 161.885 19.0323C161.885 20.0879 161.574 20.9883 160.953 21.7335C160.332 22.4786 159.556 23.0478 158.625 23.4411C157.693 23.8137 156.741 24 155.768 24C154.547 24 153.326 23.793 152.105 23.379C150.883 22.9443 149.869 22.1888 149.062 21.1125Z" fill="#01192F"/>
<path d="M186.403 12.8228C186.403 14.3751 186.144 15.824 185.627 17.1694C185.11 18.5149 184.375 19.705 183.423 20.7399C182.491 21.7542 181.373 22.5511 180.069 23.1306C178.786 23.7102 177.379 24 175.847 24C174.315 24 172.908 23.7102 171.624 23.1306C170.341 22.5511 169.223 21.7542 168.271 20.7399C167.34 19.705 166.615 18.5149 166.098 17.1694C165.58 15.824 165.322 14.3751 165.322 12.8228C165.322 11.2704 165.58 9.82147 166.098 8.47606C166.615 7.13066 167.34 5.95084 168.271 4.93661C169.223 3.90168 170.341 3.09444 171.624 2.51488C172.908 1.93532 174.315 1.64554 175.847 1.64554C177.379 1.64554 178.786 1.93532 180.069 2.51488C181.373 3.09444 182.491 3.90168 183.423 4.93661C184.375 5.95084 185.11 7.13066 185.627 8.47606C186.144 9.82147 186.403 11.2704 186.403 12.8228ZM182.367 12.8228C182.367 11.436 182.088 10.1837 181.529 9.06597C180.97 7.92755 180.204 7.02716 179.231 6.36481C178.258 5.70246 177.13 5.37128 175.847 5.37128C174.564 5.37128 173.436 5.70246 172.463 6.36481C171.49 7.02716 170.724 7.9172 170.165 9.03492C169.627 10.1526 169.358 11.4153 169.358 12.8228C169.358 14.2096 169.627 15.4722 170.165 16.6106C170.724 17.7283 171.49 18.6183 172.463 19.2807C173.436 19.9431 174.564 20.2742 175.847 20.2742C177.13 20.2742 178.258 19.9431 179.231 19.2807C180.204 18.6183 180.97 17.7283 181.529 16.6106C182.088 15.4722 182.367 14.2096 182.367 12.8228Z" fill="#D14905"/>
<path d="M198.536 6.76843C200.068 6.76843 201.227 7.08926 202.014 7.73092C202.821 8.37257 203.369 9.23156 203.659 10.3079C203.97 11.3635 204.125 12.5433 204.125 13.8473V21.7956C204.125 22.3337 203.949 22.7891 203.597 23.1617C203.245 23.5135 202.8 23.6895 202.262 23.6895C201.724 23.6895 201.279 23.5135 200.927 23.1617C200.575 22.7891 200.399 22.3337 200.399 21.7956V13.8473C200.399 13.1643 200.306 12.5537 200.12 12.0155C199.954 11.4567 199.644 11.0116 199.188 10.6805C198.733 10.3493 198.081 10.1837 197.232 10.1837C196.404 10.1837 195.701 10.3493 195.121 10.6805C194.562 11.0116 194.128 11.4567 193.817 12.0155C193.527 12.5537 193.382 13.1643 193.382 13.8473V21.7956C193.382 22.3337 193.206 22.7891 192.855 23.1617C192.503 23.5135 192.058 23.6895 191.52 23.6895C190.981 23.6895 190.536 23.5135 190.184 23.1617C189.833 22.7891 189.657 22.3337 189.657 21.7956V8.97283C189.657 8.43466 189.833 7.98965 190.184 7.63777C190.536 7.2652 190.981 7.07891 191.52 7.07891C192.058 7.07891 192.503 7.2652 192.855 7.63777C193.206 7.98965 193.382 8.43466 193.382 8.97283V10.3079L192.917 10.2147C193.103 9.86286 193.372 9.49029 193.724 9.09702C194.076 8.68305 194.49 8.30012 194.966 7.94825C195.442 7.59637 195.98 7.31694 196.58 7.10996C197.181 6.88227 197.833 6.76843 198.536 6.76843Z" fill="#D14905"/>
<path d="M212.188 21.7956C212.188 22.3337 212.002 22.7891 211.629 23.1617C211.277 23.5135 210.832 23.6895 210.294 23.6895C209.777 23.6895 209.342 23.5135 208.99 23.1617C208.638 22.7891 208.462 22.3337 208.462 21.7956V2.60803C208.462 2.06986 208.638 1.62485 208.99 1.27297C209.363 0.900398 209.818 0.714111 210.356 0.714111C210.894 0.714111 211.329 0.900398 211.66 1.27297C212.012 1.62485 212.188 2.06986 212.188 2.60803V21.7956Z" fill="#D14905"/>
<path d="M220.029 21.7956C220.029 22.3337 219.853 22.7891 219.501 23.1617C219.149 23.5135 218.704 23.6895 218.166 23.6895C217.628 23.6895 217.183 23.5135 216.831 23.1617C216.479 22.7891 216.303 22.3337 216.303 21.7956V8.97283C216.303 8.43466 216.479 7.98965 216.831 7.63777C217.183 7.2652 217.628 7.07891 218.166 7.07891C218.704 7.07891 219.149 7.2652 219.501 7.63777C219.853 7.98965 220.029 8.43466 220.029 8.97283V21.7956ZM218.135 5.0608C217.431 5.0608 216.934 4.94696 216.644 4.71928C216.355 4.49159 216.21 4.08797 216.21 3.50841V2.9185C216.21 2.31825 216.365 1.91463 216.676 1.70764C217.007 1.47996 217.503 1.36611 218.166 1.36611C218.89 1.36611 219.397 1.47996 219.687 1.70764C219.977 1.93532 220.122 2.33895 220.122 2.9185V3.50841C220.122 4.10867 219.967 4.52264 219.656 4.75033C219.346 4.95731 218.839 5.0608 218.135 5.0608Z" fill="#D14905"/>
<path d="M232.737 6.76843C234.269 6.76843 235.428 7.08926 236.215 7.73092C237.022 8.37257 237.571 9.23156 237.86 10.3079C238.171 11.3635 238.326 12.5433 238.326 13.8473V21.7956C238.326 22.3337 238.15 22.7891 237.798 23.1617C237.446 23.5135 237.001 23.6895 236.463 23.6895C235.925 23.6895 235.48 23.5135 235.128 23.1617C234.776 22.7891 234.6 22.3337 234.6 21.7956V13.8473C234.6 13.1643 234.507 12.5537 234.321 12.0155C234.155 11.4567 233.845 11.0116 233.389 10.6805C232.934 10.3493 232.282 10.1837 231.433 10.1837C230.605 10.1837 229.902 10.3493 229.322 10.6805C228.763 11.0116 228.329 11.4567 228.018 12.0155C227.728 12.5537 227.583 13.1643 227.583 13.8473V21.7956C227.583 22.3337 227.408 22.7891 227.056 23.1617C226.704 23.5135 226.259 23.6895 225.721 23.6895C225.182 23.6895 224.737 23.5135 224.386 23.1617C224.034 22.7891 223.858 22.3337 223.858 21.7956V8.97283C223.858 8.43466 224.034 7.98965 224.386 7.63777C224.737 7.2652 225.182 7.07891 225.721 7.07891C226.259 7.07891 226.704 7.2652 227.056 7.63777C227.408 7.98965 227.583 8.43466 227.583 8.97283V10.3079L227.118 10.2147C227.304 9.86286 227.573 9.49029 227.925 9.09702C228.277 8.68305 228.691 8.30012 229.167 7.94825C229.643 7.59637 230.181 7.31694 230.781 7.10996C231.382 6.88227 232.034 6.76843 232.737 6.76843Z" fill="#D14905"/>
<path d="M250.177 24C248.418 24 246.886 23.6377 245.582 22.9133C244.299 22.1681 243.305 21.1643 242.601 19.9017C241.918 18.639 241.577 17.2108 241.577 15.6171C241.577 13.7542 241.949 12.1708 242.695 10.8667C243.46 9.54204 244.454 8.52781 245.675 7.82406C246.896 7.12031 248.19 6.76843 249.556 6.76843C250.612 6.76843 251.605 6.98577 252.537 7.42044C253.489 7.85511 254.327 8.45536 255.052 9.22121C255.776 9.96636 256.345 10.8357 256.759 11.8292C257.194 12.8228 257.411 13.8784 257.411 14.9961C257.391 15.4929 257.194 15.8965 256.821 16.207C256.449 16.5174 256.014 16.6727 255.517 16.6727H243.657L242.726 13.5679H254.12L253.437 14.1889V13.3506C253.396 12.7503 253.178 12.2121 252.785 11.7361C252.413 11.26 251.936 10.8874 251.357 10.6184C250.798 10.3286 250.198 10.1837 249.556 10.1837C248.935 10.1837 248.356 10.2665 247.817 10.4321C247.279 10.5977 246.814 10.8771 246.42 11.2704C246.027 11.6636 245.717 12.1914 245.489 12.8538C245.261 13.5162 245.147 14.3544 245.147 15.3687C245.147 16.4864 245.375 17.4385 245.83 18.2251C246.306 18.9909 246.907 19.5808 247.631 19.9948C248.376 20.3881 249.163 20.5847 249.991 20.5847C250.757 20.5847 251.367 20.5226 251.823 20.3984C252.278 20.2742 252.64 20.1293 252.909 19.9637C253.199 19.7775 253.458 19.6222 253.685 19.498C254.058 19.3117 254.41 19.2186 254.741 19.2186C255.196 19.2186 255.569 19.3738 255.859 19.6843C256.169 19.9948 256.325 20.357 256.325 20.771C256.325 21.3299 256.035 21.837 255.455 22.2923C254.917 22.7477 254.162 23.1513 253.189 23.5032C252.216 23.8344 251.212 24 250.177 24Z" fill="#D14905"/>
</svg>
